%YAML 1.1
%TAG !u! tag:unity3d.com,2011:
--- !u!687078895 &4343727234628468602
SpriteAtlas:
  m_ObjectHideFlags: 0
  m_CorrespondingSourceObject: {fileID: 0}
  m_PrefabInstance: {fileID: 0}
  m_PrefabAsset: {fileID: 0}
  m_Name: ui
  m_EditorData:
    serializedVersion: 2
    textureSettings:
      serializedVersion: 2
      anisoLevel: 1
      compressionQuality: 50
      maxTextureSize: 2048
      textureCompression: 0
      filterMode: 0
      generateMipMaps: 0
      readable: 0
      crunchedCompression: 0
      sRGB: 1
    platformSettings:
    - serializedVersion: 2
      m_BuildTarget: DefaultTexturePlatform
      m_MaxTextureSize: 4096
      m_ResizeAlgorithm: 0
      m_TextureFormat: -1
      m_TextureCompression: 0
      m_CompressionQuality: 50
      m_CrunchedCompression: 0
      m_AllowsAlphaSplitting: 0
      m_Overridden: 0
      m_AndroidETC2FallbackOverride: 0
    packingSettings:
      serializedVersion: 2
      padding: 8
      blockOffset: 1
      allowAlphaSplitting: 0
      enableRotation: 0
      enableTightPacking: 0
    variantMultiplier: 1
    packables:
    - {fileID: 102900000, guid: a5e1fdaa81e6086478448bcad78a5267, type: 3}
    - {fileID: 102900000, guid: 661dd85b721de6c48aa5169c83beebf6, type: 3}
    - {fileID: 102900000, guid: dbd6fb4a30e5b114faf2a96c9754ac65, type: 3}
    - {fileID: 102900000, guid: 32a7144410aaa4d4ea525d663aff29fe, type: 3}
    - {fileID: 102900000, guid: 317080041a7cfb44db1767848d6b604b, type: 3}
    totalSpriteSurfaceArea: 8793679
    bindAsDefault: 1
  m_MasterAtlas: {fileID: 0}
  m_PackedSprites:
  - {fileID: 21300000, guid: 2693e91010a43574bbb36cfb0da1e125, type: 3}
  - {fileID: 21300000, guid: 1481334038ea30a4bbbeb1912d9230ff, type: 3}
  - {fileID: 21300000, guid: dce07060ba1c3964a84b3ec42f0c2477, type: 3}
  - {fileID: 21300000, guid: 4c6ff0803aeb5d1418f145597c16d05e, type: 3}
  - {fileID: 21300000, guid: a9a22c90a69285f4fba9717e84852717, type: 3}
  - {fileID: 21300000, guid: 40082dc06014b0b42a9b6c7ca3b79d59, type: 3}
  - {fileID: 21300000, guid: 90523fd09249fed4291cb5227e137ea0, type: 3}
  - {fileID: 21300000, guid: dbc49de063591e741821707087728b4e, type: 3}
  - {fileID: 21300000, guid: e1172d0161030574dae11c5e2cb8921a, type: 3}
  - {fileID: 21300000, guid: b9d57a4161b87ac43844cd039a58475f, type: 3}
  - {fileID: 21300000, guid: 8f9f91a1bccbc7242b4c42bb7ae4e3d2, type: 3}
  - {fileID: 21300000, guid: 8a394ad1372b8294f99ad9d2c33f59ad, type: 3}
  - {fileID: 21300000, guid: 70783f222b0c71440a082ff647835516, type: 3}
  - {fileID: 21300000, guid: fdd93a52409cf69489c9a92d23b18759, type: 3}
  - {fileID: 21300000, guid: 7b99d5b2c5a08134384f22245c7574a1, type: 3}
  - {fileID: 21300000, guid: b57930d302719f64b80f87a38be0539e, type: 3}
  - {fileID: 21300000, guid: b9907cd3f24a4544a9c6be4152badfde, type: 3}
  - {fileID: 21300000, guid: d74c8e2402f636444b9f3de105e5c8f9, type: 3}
  - {fileID: 21300000, guid: f548c34456ae35a4da28a977cc07c0c9, type: 3}
  - {fileID: 21300000, guid: 7c39fe94d7cc03442ad53eac0cea5f71, type: 3}
  - {fileID: 21300000, guid: e832f8a4f31186448b2c250268b36742, type: 3}
  - {fileID: 21300000, guid: 7723d0c4abda2b24687491071e99af9e, type: 3}
  - {fileID: 21300000, guid: 8173f0253e1d3b74a8660351f517c832, type: 3}
  - {fileID: 21300000, guid: 560e0d8591efac84f9340ef1145d7123, type: 3}
  - {fileID: 21300000, guid: dcbec4462de36684c98d45c71eee68b8, type: 3}
  - {fileID: 21300000, guid: 8e02c966211256547b69c0381a52d995, type: 3}
  - {fileID: 21300000, guid: 99236d6652d540e4a9b57040936dbd32, type: 3}
  - {fileID: 21300000, guid: 289510762bc007f44acc805d19c07088, type: 3}
  - {fileID: 21300000, guid: b44c79964f3be0747ae2b2a8a4fc8798, type: 3}
  - {fileID: 21300000, guid: 582eccb6699391543a596e468b56d68c, type: 3}
  - {fileID: 21300000, guid: aea0e8f6213c7c44cb8c3e6204459bcc, type: 3}
  - {fileID: 21300000, guid: 41b00c3781537dd4e9d60980fc56f805, type: 3}
  - {fileID: 21300000, guid: 5b321d4760f872f4aa9d4c5d856394c0, type: 3}
  - {fileID: 21300000, guid: 730dbb57012a2cb4ab380b3079761b24, type: 3}
  - {fileID: 21300000, guid: 7ca26ee7f8f599742972114fc284ac21, type: 3}
  - {fileID: 21300000, guid: d5637cf71c473f64dadf205102e80952, type: 3}
  - {fileID: 21300000, guid: 618b0548e53147947a3d794019e530b2, type: 3}
  - {fileID: 21300000, guid: 169aaba8c20e92e45a85bf68e9159ff3, type: 3}
  - {fileID: 21300000, guid: 275e7ec87a2bf9d47979ae7bced3c068, type: 3}
  - {fileID: 21300000, guid: c5e101698caee1b46a2c1b3701ca3c3a, type: 3}
  - {fileID: 21300000, guid: 7235a2792bdd79c40af31c8cd4258da3, type: 3}
  - {fileID: 21300000, guid: ec553aa9b5d98d84081542d078774b16, type: 3}
  - {fileID: 21300000, guid: 24d91ca91631e4c4da0691901c74ffb1, type: 3}
  - {fileID: 21300000, guid: 25f10cc912215cf4d9c4d12ba249f207, type: 3}
  - {fileID: 21300000, guid: a1159ed9b89dbe04ba0056251e64e58a, type: 3}
  - {fileID: 21300000, guid: a71a75e924fc662459d9c295034c1c8e, type: 3}
  - {fileID: 21300000, guid: cc3c83ba2287c1b4ab01866e3b98285c, type: 3}
  - {fileID: 21300000, guid: 722bf8ea9395ad0488f853393305780b, type: 3}
  - {fileID: 21300000, guid: a0d6d74bc3dec5f45b0c9a4b0c9ebe5f, type: 3}
  - {fileID: 21300000, guid: 2b0d4e7bf344774459d025e4c723ba78, type: 3}
  - {fileID: 21300000, guid: 283378bbf45dff240a24c8c4549507de, type: 3}
  - {fileID: 21300000, guid: f1fe9cdb96f0d9248a97b206cc146ebf, type: 3}
  - {fileID: 21300000, guid: 9612150cbb33ebf4abaafcb0066d0c09, type: 3}
  - {fileID: 21300000, guid: cf9f303cfb921a54c9b9127af2f877c0, type: 3}
  - {fileID: 21300000, guid: 9a03924cfa2bc044eb0636711b68053e, type: 3}
  - {fileID: 21300000, guid: e36d0c8caa3e8a64187ebb71b1c589b6, type: 3}
  - {fileID: 21300000, guid: 6953f4cc409b3f4489fac973245717b7, type: 3}
  - {fileID: 21300000, guid: 4ce557cc090bf604999f084d5c52f88c, type: 3}
  - {fileID: 21300000, guid: cfba19cc91fa2034e9f341a44621ac47, type: 3}
  - {fileID: 21300000, guid: 484708ad00772824c8ff678c35cd3ded, type: 3}
  - {fileID: 21300000, guid: 07ee7a3ee5a4c8a4cb632a9d8131a730, type: 3}
  - {fileID: 21300000, guid: bfe8ff4e5c151374f8f0974f0cde948f, type: 3}
  - {fileID: 21300000, guid: c16ae25e5dcf9534bbffe5ab6f674f18, type: 3}
  - {fileID: 21300000, guid: 56607dbecc31d5e4884bf7126c32f3b3, type: 3}
  - {fileID: 21300000, guid: 333577eebe3cf2649a6c7f3d299dceba, type: 3}
  - {fileID: 21300000, guid: fa78e85fd00b5b34e962020412cef43e, type: 3}
  - {fileID: 21300000, guid: 1a83ac7f195e82b40b81bc52dac17484, type: 3}
  m_PackedSpriteNamesToIndex:
  - arrow
  - box_event2
  - box_event1
  - icon_07
  - box_user information
  - logo
  - circle_2
  - box_ID_PW
  - button_round
  - box_option2
  - icon_01
  - icon_04
  - box_coin2
  - icon_09
  - Circle
  - box_exp3
  - icon_08
  - map_pin
  - Base_tower
  - box_select3
  - box_event3
  - user
  - button_plus
  - button_triangle_left
  - button_triangle_under
  - box_exp1
  - button_triangle_top
  - box_login3
  - box_exp2
  - button_triangle_right
  - icon_06
  - button_square
  - box_login2
  - bar_sound
  - box_coin3
  - home
  - Ice
  - bar_exp
  - button_exit
  - stage_circle
  - Poison
  - circle_1
  - icon_10
  - star
  - icon_03
  - reload
  - box_login1
  - box_option1
  - sound_pin
  - box_option3
  - box_option4
  - button_login
  - box_map name
  - user_name
  - board
  - icon_05
  - Simple_Color
  - box_coin1
  - box_select2
  - icon_02
  - button_start
  - circle_3
  - exclamation_mark
  - Sand_time
  - box_select1
  - Sad_Face_Emoji
  - user_2
  m_Tag: ui
  m_IsVariant: 0
