%YAML 1.1
%TAG !u! tag:unity3d.com,2011:
--- !u!114 &11400000
MonoBehaviour:
  m_ObjectHideFlags: 0
  m_CorrespondingSourceObject: {fileID: 0}
  m_PrefabInstance: {fileID: 0}
  m_PrefabAsset: {fileID: 0}
  m_GameObject: {fileID: 0}
  m_Enabled: 1
  m_EditorHideFlags: 0
  m_Script: {fileID: 11500000, guid: de640fe3d0db1804a85f9fc8f5cadab6, type: 3}
  m_Name: Custom Forward Renderer
  m_EditorClassIdentifier: 
  m_RendererFeatures: []
  m_BlitShader: {fileID: 4800000, guid: c17132b1f77d20942aa75f8429c0f8bc, type: 3}
  m_CopyDepthShader: {fileID: 4800000, guid: d6dae50ee9e1bfa4db75f19f99355220, type: 3}
  m_ScreenSpaceShadowShader: {fileID: 4800000, guid: 0f854b35a0cf61a429bd5dcfea30eddd,
    type: 3}
  m_SamplingShader: {fileID: 4800000, guid: 04c410c9937594faa893a11dceb85f7e, type: 3}
  m_OpaqueLayerMask:
    serializedVersion: 2
    m_Bits: 4294967295
  m_TransparentLayerMask:
    serializedVersion: 2
    m_Bits: 4294967295
  m_DefaultStencilState:
    overrideStencilState: 1
    stencilReference: 0
    stencilCompareFunction: 8
    passOperation: 0
    failOperation: 0
    zFailOperation: 0
