# MagicaVoxel @ Ephtracy

# group
o 

# material
mtllib ice monster.mtl
usemtl palette

# normals
vn 0 0 1
vn 0 0 -1
vn 1 0 0
vn -1 0 0
vn 0 -1 0
vn 0 1 0

# texcoords
vt 0.404297 0.5
vt 0.521484 0.5
vt 0.615234 0.5
vt 0.779297 0.5
vt 0.958984 0.5
vt 0.962891 0.5
vt 0.994141 0.5

# verts
v 0.2 0.5 0.2
v 0.1 0.5 0.2
v -0.2 0.5 0.2
v 0.3 0.6 0.2
v 0.2 0.6 0.2
v 0.1 0.6 0.2
v -0.2 0.6 0.2
v -0.3 0.6 0.2
v 0.2 0.8 0.2
v 0.1 0.8 0.2
v 0.3 0.9 0.2
v 0.2 0.9 0.2
v -0.1 0.9 0.2
v -0.2 0.9 0.2
v -0.1 1 0.2
v -0.3 1 0.2
v 0.2 1.2 0.2
v 0.1 1.2 0.2
v 0.3 1.4 0.2
v -0.3 1.4 0.2
v 0.4 0 0.1
v 0.1 0 0.1
v -0.1 0 0.1
v -0.4 0 0.1
v 0.2 0.1 0.1
v 0.1 0.1 0.1
v -0.2 0.1 0.1
v -0.4 0.1 0.1
v 0.4 0.2 0.1
v 0.3 0.2 0.1
v 0.4 0.3 0.1
v 0.3 0.3 0.1
v -0.2 0.3 0.1
v -0.4 0.3 0.1
v 0.4 0.5 0.1
v 0.3 0.5 0.1
v 0.2 0.5 0.1
v 0.1 0.5 0.1
v -0.1 0.5 0.1
v -0.2 0.5 0.1
v -0.3 0.5 0.1
v -0.4 0.5 0.1
v 0.4 0.6 0.1
v 0.3 0.6 0.1
v 0.2 0.6 0.1
v -0.2 0.6 0.1
v -0.3 0.6 0.1
v -0.4 0.6 0.1
v 0.7 0.7 0.1
v 0.5 0.7 0.1
v -0.5 0.7 0.1
v -0.7 0.7 0.1
v 0.8 0.8 0.1
v 0.7 0.8 0.1
v -0.7 0.8 0.1
v -0.8 0.8 0.1
v 0.3 0.9 0.1
v -0.3 0.9 0.1
v -0.4 0.9 0.1
v -0.7 0.9 0.1
v -0.8 0.9 0.1
v -0.3 1 0.1
v -0.4 1 0.1
v 0.8 1.1 0.1
v 0.7 1.1 0.1
v 0.5 1.1 0.1
v 0.4 1.1 0.1
v -0.4 1.1 0.1
v -0.5 1.1 0.1
v -0.7 1.1 0.1
v -0.8 1.1 0.1
v -0.4 1.2 0.1
v -0.5 1.2 0.1
v 0.7 1.3 0.1
v 0.6 1.3 0.1
v -0.6 1.3 0.1
v -0.7 1.3 0.1
v 0.6 1.4 0.1
v 0.3 1.4 0.1
v 0.2 1.4 0.1
v -0.2 1.4 0.1
v -0.3 1.4 0.1
v -0.6 1.4 0.1
v 0.3 1.6 0.1
v 0.2 1.6 0.1
v -0.2 1.6 0.1
v -0.3 1.6 0.1
v 0.4 1.8 0.1
v 0.3 1.8 0.1
v -0.3 1.8 0.1
v -0.4 1.8 0.1
v 0.4 1.9 0.1
v 0.3 1.9 0.1
v -0.3 1.9 0.1
v -0.4 1.9 0.1
v 0.3 2 0.1
v -0.3 2 0.1
v 0.8 0.7 0
v 0.7 0.7 0
v -0.7 0.7 0
v -0.8 0.7 0
v 0.8 0.8 0
v 0.7 0.8 0
v -0.7 0.8 0
v -0.8 0.8 0
v 0.2 1.7 -0.4
v 0.1 1.7 -0.4
v 0.2 1.8 -0.4
v 0.1 1.8 -0.4
v 0.8 0.7 -0.1
v 0.7 0.7 -0.1
v 0.6 0.7 -0.1
v 0.5 0.7 -0.1
v -0.5 0.7 -0.1
v -0.6 0.7 -0.1
v -0.7 0.7 -0.1
v -0.8 0.7 -0.1
v 0.8 0.8 -0.1
v 0.7 0.8 -0.1
v 0.6 0.8 -0.1
v 0.5 0.8 -0.1
v -0.5 0.8 -0.1
v -0.6 0.8 -0.1
v -0.7 0.8 -0.1
v -0.8 0.8 -0.1
v 0.4 0.2 -0.2
v 0.3 0.2 -0.2
v 0.1 0.2 -0.2
v -0.1 0.2 -0.2
v -0.4 0.2 -0.2
v 0.4 0.3 -0.2
v 0.3 0.3 -0.2
v 0.1 0.3 -0.2
v -0.1 0.3 -0.2
v -0.4 0.3 -0.2
v 0.3 0.4 -0.2
v 0.1 0.4 -0.2
v 0.4 0.5 -0.2
v 0.3 0.5 -0.2
v 0.1 0.5 -0.2
v -0.1 0.5 -0.2
v -0.3 0.5 -0.2
v -0.4 0.5 -0.2
v 0.4 0.6 -0.2
v 0.3 0.6 -0.2
v -0.3 0.6 -0.2
v -0.4 0.6 -0.2
v 0.7 0.7 -0.2
v 0.6 0.7 -0.2
v 0.2 0.7 -0.2
v 0.1 0.7 -0.2
v -0.1 0.7 -0.2
v -0.2 0.7 -0.2
v -0.6 0.7 -0.2
v -0.7 0.7 -0.2
v 0.8 0.8 -0.2
v 0.7 0.8 -0.2
v 0.6 0.8 -0.2
v 0.5 0.8 -0.2
v 0.2 0.8 -0.2
v -0.2 0.8 -0.2
v -0.5 0.8 -0.2
v -0.6 0.8 -0.2
v -0.7 0.8 -0.2
v -0.8 0.8 -0.2
v 0.8 0.9 -0.2
v 0.7 0.9 -0.2
v -0.3 0.9 -0.2
v -0.4 0.9 -0.2
v -0.7 0.9 -0.2
v -0.8 0.9 -0.2
v 0.4 1 -0.2
v 0.3 1 -0.2
v -0.3 1 -0.2
v -0.4 1 -0.2
v -0.5 1 -0.2
v -0.6 1 -0.2
v -0.7 1 -0.2
v 0.8 1.1 -0.2
v 0.7 1.1 -0.2
v 0.5 1.1 -0.2
v 0.4 1.1 -0.2
v 0.3 1.1 -0.2
v 0.2 1.1 -0.2
v -0.2 1.1 -0.2
v -0.3 1.1 -0.2
v -0.4 1.1 -0.2
v -0.5 1.1 -0.2
v -0.6 1.1 -0.2
v -0.7 1.1 -0.2
v -0.8 1.1 -0.2
v 0.3 1.2 -0.2
v -0.3 1.2 -0.2
v -0.6 1.2 -0.2
v 0.7 1.3 -0.2
v 0.6 1.3 -0.2
v 0.4 1.3 -0.2
v 0.3 1.3 -0.2
v -0.6 1.3 -0.2
v -0.7 1.3 -0.2
v 0.6 1.4 -0.2
v 0.3 1.4 -0.2
v 0.2 1.4 -0.2
v -0.2 1.4 -0.2
v -0.3 1.4 -0.2
v -0.6 1.4 -0.2
v 0.2 1.5 -0.2
v -0.2 1.5 -0.2
v 0.4 0.1 -0.3
v 0.1 0.1 -0.3
v -0.1 0.1 -0.3
v -0.4 0.1 -0.3
v 0.4 0.2 -0.3
v 0.1 0.2 -0.3
v -0.1 0.2 -0.3
v -0.4 0.2 -0.3
v 0.2 0.7 -0.3
v 0.1 0.7 -0.3
v -0.1 0.7 -0.3
v -0.2 0.7 -0.3
v 0.2 0.8 -0.3
v 0.1 0.8 -0.3
v -0.1 0.8 -0.3
v -0.2 0.8 -0.3
v 0.1 1 -0.3
v -5.96046e-008 1 -0.3
v 0.3 1.1 -0.3
v 0.2 1.1 -0.3
v 0.1 1.1 -0.3
v -5.96046e-008 1.1 -0.3
v -0.2 1.1 -0.3
v -0.3 1.1 -0.3
v 0.3 1.2 -0.3
v 0.2 1.2 -0.3
v 0.1 1.2 -0.3
v 0.3 1.3 -0.3
v 0.2 1.3 -0.3
v 0.3 1.4 -0.3
v -0.3 1.4 -0.3
v 0.3 1.6 -0.3
v 0.2 1.6 -0.3
v -0.2 1.6 -0.3
v -0.3 1.6 -0.3
v 0.3 1.7 -0.3
v 0.2 1.7 -0.3
v 0.1 1.7 -0.3
v -0.1 1.7 -0.3
v -0.2 1.7 -0.3
v -0.3 1.7 -0.3
v 0.4 1.8 -0.3
v 0.3 1.8 -0.3
v 0.2 1.8 -0.3
v 0.1 1.8 -0.3
v -0.1 1.8 -0.3
v -0.2 1.8 -0.3
v -0.3 1.8 -0.3
v -0.4 1.8 -0.3
v 0.4 1.9 -0.3
v 0.3 1.9 -0.3
v 0.1 1.9 -0.3
v -0.1 1.9 -0.3
v -0.3 1.9 -0.3
v -0.4 1.9 -0.3
v 0.3 2 -0.3
v 0.1 2 -0.3
v -0.3 2 -0.3
v 0.4 0 -0.4
v 0.1 0 -0.4
v -0.1 0 -0.4
v -0.4 0 -0.4
v 0.4 0.1 -0.4
v 0.1 0.1 -0.4
v -0.1 0.1 -0.4
v -0.4 0.1 -0.4
v 0.2 1.5 -0.4
v -0.2 1.5 -0.4
v 0.2 1.6 -0.4
v -0.2 1.6 -0.4
v 0.2 1.6 -0.5
v -0.2 1.6 -0.5
v 0.2 1.7 -0.5
v 0.1 1.7 -0.5
v -0.2 1.7 -0.5
v 0.2 1.8 -0.5
v 0.1 1.8 -0.5
v 0.8 0.8 0.1
v 0.8 1.1 0.1
v 0.8 0.7 0
v 0.8 0.8 0
v 0.8 0.7 -0.1
v 0.8 0.8 -0.1
v 0.8 0.9 -0.1
v 0.8 1.1 -0.1
v 0.8 0.8 -0.2
v 0.8 0.9 -0.2
v 0.8 1.1 -0.2
v 0.7 0.7 0.1
v 0.7 0.8 0.1
v 0.7 1.1 0.1
v 0.7 1.3 0.1
v 0.7 0.7 0
v 0.7 0.8 0
v 0.7 0.7 -0.1
v 0.7 0.8 -0.1
v 0.7 1.1 -0.1
v 0.7 0.7 -0.2
v 0.7 0.8 -0.2
v 0.7 1.1 -0.2
v 0.7 1.3 -0.2
v 0.6 1.3 0.1
v 0.6 1.4 0.1
v 0.6 1.3 -0.2
v 0.6 1.4 -0.2
v 0.4 0 0.1
v 0.4 0.2 0.1
v 0.4 0.3 0.1
v 0.4 0.5 0.1
v 0.4 0.6 0.1
v 0.4 1.1 0.1
v 0.4 1.8 0.1
v 0.4 1.9 0.1
v 0.4 1 -0.1
v 0.4 1.1 -0.1
v 0.4 0.2 -0.2
v 0.4 0.3 -0.2
v 0.4 0.5 -0.2
v 0.4 0.6 -0.2
v 0.4 1 -0.2
v 0.4 1.1 -0.2
v 0.4 0.1 -0.3
v 0.4 0.2 -0.3
v 0.4 1.8 -0.3
v 0.4 1.9 -0.3
v 0.4 0 -0.4
v 0.4 0.1 -0.4
v 0.3 0.6 0.2
v 0.3 0.9 0.2
v 0.3 1.4 0.2
v 0.3 0.5 0.1
v 0.3 0.6 0.1
v 0.3 0.9 0.1
v 0.3 1.4 0.1
v 0.3 1.6 0.1
v 0.3 1.8 0.1
v 0.3 1.9 0.1
v 0.3 2 0.1
v 0.3 0.5 -0.2
v 0.3 0.6 -0.2
v 0.3 1.1 -0.2
v 0.3 1.2 -0.2
v 0.3 1.3 -0.2
v 0.3 1.4 -0.2
v 0.3 1.7 -0.2
v 0.3 1.8 -0.2
v 0.3 1.9 -0.2
v 0.3 2 -0.2
v 0.3 1.1 -0.3
v 0.3 1.2 -0.3
v 0.3 1.3 -0.3
v 0.3 1.4 -0.3
v 0.3 1.6 -0.3
v 0.3 1.7 -0.3
v 0.3 1.8 -0.3
v 0.3 1.9 -0.3
v 0.3 2 -0.3
v 0.2 0.5 0.2
v 0.2 0.6 0.2
v 0.2 0.5 0.1
v 0.2 0.6 0.1
v 0.2 1.4 0.1
v 0.2 1.6 0.1
v 0.2 0.7 -0.2
v 0.2 0.8 -0.2
v 0.2 1.1 -0.2
v 0.2 1.4 -0.2
v 0.2 1.5 -0.2
v 0.2 0.7 -0.3
v 0.2 0.8 -0.3
v 0.2 1.1 -0.3
v 0.2 1.6 -0.3
v 0.2 1.7 -0.3
v 0.2 1.5 -0.4
v 0.2 1.6 -0.4
v 0.2 1.7 -0.4
v 0.2 1.8 -0.4
v 0.2 1.6 -0.5
v 0.2 1.7 -0.5
v 0.2 1.8 -0.5
v -0.1 0 0.1
v -0.1 0.5 0.1
v -0.1 0.2 -0.1
v -0.1 0.3 -0.1
v -0.1 0.2 -0.2
v -0.1 0.3 -0.2
v -0.1 0.5 -0.2
v -0.1 0.1 -0.3
v -0.1 0.2 -0.3
v -0.1 0 -0.4
v -0.1 0.1 -0.4
v -0.5 0.7 0.1
v -0.5 1.1 0.1
v -0.5 0.7 -0.1
v -0.5 0.8 -0.1
v -0.5 1 -0.1
v -0.5 1.1 -0.1
v -0.5 0.8 -0.2
v -0.5 1 -0.2
v -0.5 1.1 -0.2
v -0.6 0.7 -0.1
v -0.6 0.8 -0.1
v -0.6 0.7 -0.2
v -0.6 0.8 -0.2
v 0.6 0.7 -0.1
v 0.6 0.8 -0.1
v 0.6 0.7 -0.2
v 0.6 0.8 -0.2
v 0.5 0.7 0.1
v 0.5 1.1 0.1
v 0.5 0.7 -0.1
v 0.5 0.8 -0.1
v 0.5 0.8 -0.2
v 0.5 1.1 -0.2
v 0.1 0 0.1
v 0.1 0.1 0.1
v 0.1 0.5 0.1
v 0.1 0.1 0
v 0.1 0.5 0
v 0.1 0.3 -0.1
v 0.1 0.4 -0.1
v 0.1 0.2 -0.2
v 0.1 0.3 -0.2
v 0.1 0.4 -0.2
v 0.1 0.5 -0.2
v 0.1 0.1 -0.3
v 0.1 0.2 -0.3
v 0.1 0 -0.4
v 0.1 0.1 -0.4
v 0.1 1.7 -0.4
v 0.1 1.8 -0.4
v 0.1 1.7 -0.5
v 0.1 1.8 -0.5
v -0.2 0.5 0.2
v -0.2 0.6 0.2
v -0.2 0.5 0.1
v -0.2 0.6 0.1
v -0.2 1.4 0.1
v -0.2 1.6 0.1
v -0.2 0.7 -0.2
v -0.2 0.8 -0.2
v -0.2 1.1 -0.2
v -0.2 1.4 -0.2
v -0.2 1.5 -0.2
v -0.2 0.7 -0.3
v -0.2 0.8 -0.3
v -0.2 1.1 -0.3
v -0.2 1.6 -0.3
v -0.2 1.7 -0.3
v -0.2 1.5 -0.4
v -0.2 1.6 -0.4
v -0.2 1.6 -0.5
v -0.2 1.7 -0.5
v -0.3 0.6 0.2
v -0.3 1 0.2
v -0.3 1.4 0.2
v -0.3 0.5 0.1
v -0.3 0.6 0.1
v -0.3 0.9 0.1
v -0.3 1 0.1
v -0.3 1.4 0.1
v -0.3 1.6 0.1
v -0.3 1.8 0.1
v -0.3 1.9 0.1
v -0.3 2 0.1
v -0.3 0.5 -0.2
v -0.3 0.6 -0.2
v -0.3 1.1 -0.2
v -0.3 1.2 -0.2
v -0.3 1.4 -0.2
v -0.3 1.7 -0.2
v -0.3 1.8 -0.2
v -0.3 1.1 -0.3
v -0.3 1.4 -0.3
v -0.3 1.6 -0.3
v -0.3 1.7 -0.3
v -0.3 1.8 -0.3
v -0.3 1.9 -0.3
v -0.3 2 -0.3
v -0.4 0 0.1
v -0.4 0.1 0.1
v -0.4 0.3 0.1
v -0.4 0.5 0.1
v -0.4 0.6 0.1
v -0.4 0.9 0.1
v -0.4 1 0.1
v -0.4 1.1 0.1
v -0.4 1.8 0.1
v -0.4 1.9 0.1
v -0.4 0.1 0
v -0.4 0.3 0
v -0.4 0.9 0
v -0.4 1 0
v -0.4 1.1 0
v -0.4 0.2 -0.1
v -0.4 0.3 -0.1
v -0.4 0.9 -0.1
v -0.4 1 -0.1
v -0.4 1.1 -0.1
v -0.4 0.2 -0.2
v -0.4 0.3 -0.2
v -0.4 0.5 -0.2
v -0.4 0.6 -0.2
v -0.4 0.9 -0.2
v -0.4 1 -0.2
v -0.4 1.1 -0.2
v -0.4 0.1 -0.3
v -0.4 0.2 -0.3
v -0.4 1.8 -0.3
v -0.4 1.9 -0.3
v -0.4 0 -0.4
v -0.4 0.1 -0.4
v -0.6 1.3 0.1
v -0.6 1.4 0.1
v -0.6 1.3 -0.1
v -0.6 1.3 -0.2
v -0.6 1.4 -0.2
v -0.7 0.7 0.1
v -0.7 0.8 0.1
v -0.7 1.1 0.1
v -0.7 1.3 0.1
v -0.7 0.7 0
v -0.7 0.8 0
v -0.7 0.7 -0.1
v -0.7 0.8 -0.1
v -0.7 1.1 -0.1
v -0.7 1.3 -0.1
v -0.7 0.7 -0.2
v -0.7 0.8 -0.2
v -0.7 1.1 -0.2
v -0.7 1.3 -0.2
v -0.8 0.8 0.1
v -0.8 0.9 0.1
v -0.8 1.1 0.1
v -0.8 0.7 0
v -0.8 0.8 0
v -0.8 0.9 0
v -0.8 1 0
v -0.8 0.7 -0.1
v -0.8 0.8 -0.1
v -0.8 0.9 -0.1
v -0.8 1 -0.1
v -0.8 1.1 -0.1
v -0.8 0.8 -0.2
v -0.8 0.9 -0.2
v -0.8 1.1 -0.2
v 0.4 0 0.1
v 0.4 0 -0.4
v 0.1 0 0.1
v 0.1 0 -0.4
v -0.1 0 0.1
v -0.1 0 -0.4
v -0.4 0 0.1
v -0.4 0 -0.4
v 0.2 0.5 0.2
v 0.2 0.5 0.1
v 0.1 0.5 0.2
v 0.1 0.5 0.1
v 0.1 0.5 0
v 0.1 0.5 -0.2
v -0.1 0.5 0.1
v -0.1 0.5 -0.2
v -0.2 0.5 0.2
v -0.2 0.5 0.1
v 0.4 0.6 0.1
v 0.4 0.6 -0.2
v 0.3 0.6 0.2
v 0.3 0.6 0.1
v 0.3 0.6 -0.2
v 0.2 0.6 0.2
v 0.2 0.6 0.1
v -0.2 0.6 0.2
v -0.2 0.6 0.1
v -0.3 0.6 0.2
v -0.3 0.6 0.1
v -0.3 0.6 -0.2
v -0.4 0.6 0.1
v -0.4 0.6 -0.2
v 0.8 0.7 0
v 0.8 0.7 -0.1
v 0.7 0.7 0.1
v 0.7 0.7 0
v 0.7 0.7 -0.1
v 0.7 0.7 -0.2
v 0.6 0.7 -0.1
v 0.6 0.7 -0.2
v 0.5 0.7 0.1
v 0.5 0.7 -0.1
v 0.2 0.7 -0.2
v 0.2 0.7 -0.3
v 0.1 0.7 -0.2
v 0.1 0.7 -0.3
v -0.1 0.7 -0.2
v -0.1 0.7 -0.3
v -0.2 0.7 -0.2
v -0.2 0.7 -0.3
v -0.5 0.7 0.1
v -0.5 0.7 -0.1
v -0.6 0.7 0
v -0.6 0.7 -0.1
v -0.6 0.7 -0.2
v -0.7 0.7 0.1
v -0.7 0.7 0
v -0.7 0.7 -0.1
v -0.7 0.7 -0.2
v -0.8 0.7 0
v -0.8 0.7 -0.1
v 0.8 0.8 0.1
v 0.8 0.8 0
v 0.8 0.8 -0.1
v 0.8 0.8 -0.2
v 0.7 0.8 0.1
v 0.7 0.8 0
v 0.7 0.8 -0.1
v 0.7 0.8 -0.2
v 0.6 0.8 -0.1
v 0.6 0.8 -0.2
v 0.5 0.8 -0.1
v 0.5 0.8 -0.2
v -0.5 0.8 -0.1
v -0.5 0.8 -0.2
v -0.6 0.8 -0.1
v -0.6 0.8 -0.2
v -0.7 0.8 0.1
v -0.7 0.8 0
v -0.7 0.8 -0.1
v -0.7 0.8 -0.2
v -0.8 0.8 0.1
v -0.8 0.8 0
v -0.8 0.8 -0.1
v -0.8 0.8 -0.2
v 0.5 1.1 0.1
v 0.5 1.1 -0.2
v 0.4 1.1 0.1
v 0.4 1.1 -0.1
v 0.4 1.1 -0.2
v 0.3 1.1 -0.2
v 0.3 1.1 -0.3
v 0.2 1.1 -0.2
v 0.2 1.1 -0.3
v -0.2 1.1 -0.2
v -0.2 1.1 -0.3
v -0.3 1.1 -0.2
v -0.3 1.1 -0.3
v -0.4 1.1 0.1
v -0.4 1.1 0
v -0.4 1.1 -0.1
v -0.4 1.1 -0.2
v -0.5 1.1 0.1
v -0.5 1.1 -0.1
v -0.5 1.1 -0.2
v 0.2 1.5 -0.2
v 0.2 1.5 -0.4
v -0.2 1.5 -0.2
v -0.2 1.5 -0.4
v 0.3 1.6 0.1
v 0.3 1.6 -0.3
v 0.2 1.6 0.1
v 0.2 1.6 -0.3
v 0.2 1.6 -0.4
v 0.2 1.6 -0.5
v -0.2 1.6 0.1
v -0.2 1.6 -0.3
v -0.2 1.6 -0.4
v -0.2 1.6 -0.5
v -0.3 1.6 0.1
v -0.3 1.6 -0.3
v 0.4 1.8 0.1
v 0.4 1.8 -0.3
v 0.3 1.8 0.1
v 0.3 1.8 -0.2
v 0.3 1.8 -0.3
v -0.3 1.8 0.1
v -0.3 1.8 -0.2
v -0.3 1.8 -0.3
v -0.4 1.8 0.1
v -0.4 1.8 -0.3
v 0.4 0.1 -0.3
v 0.4 0.1 -0.4
v 0.1 0.1 -0.3
v 0.1 0.1 -0.4
v -0.1 0.1 -0.3
v -0.1 0.1 -0.4
v -0.4 0.1 -0.3
v -0.4 0.1 -0.4
v 0.4 0.2 -0.2
v 0.4 0.2 -0.3
v 0.3 0.2 -0.2
v 0.1 0.2 -0.2
v 0.1 0.2 -0.3
v -0.1 0.2 -0.2
v -0.1 0.2 -0.3
v -0.4 0.2 -0.2
v -0.4 0.2 -0.3
v 0.4 0.5 0.1
v 0.4 0.5 -0.2
v 0.3 0.5 0.1
v 0.3 0.5 -0.2
v -0.3 0.5 0.1
v -0.3 0.5 -0.2
v -0.4 0.5 0.1
v -0.4 0.5 -0.2
v 0.8 1.1 0.1
v 0.8 1.1 -0.1
v 0.8 1.1 -0.2
v 0.7 1.1 0.1
v 0.7 1.1 -0.1
v 0.7 1.1 -0.2
v -0.7 1.1 0.1
v -0.7 1.1 -0.1
v -0.7 1.1 -0.2
v -0.8 1.1 0.1
v -0.8 1.1 -0.1
v -0.8 1.1 -0.2
v 0.7 1.3 0.1
v 0.7 1.3 -0.2
v 0.6 1.3 0.1
v 0.6 1.3 -0.2
v -0.6 1.3 0.1
v -0.6 1.3 -0.1
v -0.6 1.3 -0.2
v -0.7 1.3 0.1
v -0.7 1.3 -0.1
v -0.7 1.3 -0.2
v 0.6 1.4 0.1
v 0.6 1.4 -0.2
v 0.3 1.4 0.2
v 0.3 1.4 0.1
v 0.3 1.4 -0.2
v 0.3 1.4 -0.3
v 0.2 1.4 0.1
v 0.2 1.4 -0.2
v -0.2 1.4 0.1
v -0.2 1.4 -0.2
v -0.3 1.4 0.2
v -0.3 1.4 0.1
v -0.3 1.4 -0.2
v -0.3 1.4 -0.3
v -0.6 1.4 0.1
v -0.6 1.4 -0.2
v 0.2 1.7 -0.3
v 0.2 1.7 -0.4
v 0.1 1.7 -0.3
v 0.1 1.7 -0.4
v 0.1 1.7 -0.5
v -0.1 1.7 -0.3
v -0.2 1.7 -0.3
v -0.2 1.7 -0.5
v 0.2 1.8 -0.4
v 0.2 1.8 -0.5
v 0.1 1.8 -0.4
v 0.1 1.8 -0.5
v 0.4 1.9 0.1
v 0.4 1.9 -0.3
v 0.3 1.9 0.1
v 0.3 1.9 -0.2
v 0.3 1.9 -0.3
v -0.3 1.9 0.1
v -0.3 1.9 -0.3
v -0.4 1.9 0.1
v -0.4 1.9 -0.3
v 0.3 2 0.1
v 0.3 2 -0.2
v 0.3 2 -0.3
v 0.1 2 -0.2
v 0.1 2 -0.3
v -0.3 2 0.1
v -0.3 2 -0.3

# faces
f 5/3/1 2/3/1 1/3/1
f 6/4/1 3/4/1 2/4/1
f 6/3/1 2/3/1 5/3/1
f 7/4/1 3/4/1 6/4/1
f 9/3/1 5/3/1 4/3/1
f 9/4/1 6/4/1 5/4/1
f 9/4/1 7/4/1 6/4/1
f 10/4/1 7/4/1 9/4/1
f 11/3/1 9/3/1 4/3/1
f 11/3/1 10/3/1 9/3/1
f 12/3/1 10/3/1 11/3/1
f 13/4/1 7/4/1 10/4/1
f 14/2/1 8/2/1 7/2/1
f 14/4/1 7/4/1 13/4/1
f 15/4/1 13/4/1 10/4/1
f 15/2/1 14/2/1 13/2/1
f 16/2/1 8/2/1 14/2/1
f 16/2/1 14/2/1 15/2/1
f 17/3/1 10/3/1 12/3/1
f 17/4/1 12/4/1 11/4/1
f 18/4/1 15/4/1 10/4/1
f 18/3/1 10/3/1 17/3/1
f 18/4/1 16/4/1 15/4/1
f 19/4/1 17/4/1 11/4/1
f 19/4/1 18/4/1 17/4/1
f 20/4/1 16/4/1 18/4/1
f 20/4/1 18/4/1 19/4/1
f 25/4/1 22/4/1 21/4/1
f 26/4/1 22/4/1 25/4/1
f 27/4/1 24/4/1 23/4/1
f 28/4/1 24/4/1 27/4/1
f 29/4/1 25/4/1 21/4/1
f 30/4/1 25/4/1 29/4/1
f 31/2/1 30/2/1 29/2/1
f 32/4/1 25/4/1 30/4/1
f 32/2/1 30/2/1 31/2/1
f 33/4/1 27/4/1 23/4/1
f 33/3/1 28/3/1 27/3/1
f 34/3/1 28/3/1 33/3/1
f 35/4/1 32/4/1 31/4/1
f 36/4/1 25/4/1 32/4/1
f 36/4/1 32/4/1 35/4/1
f 37/3/1 26/3/1 25/3/1
f 37/4/1 25/4/1 36/4/1
f 38/3/1 26/3/1 37/3/1
f 39/4/1 33/4/1 23/4/1
f 39/4/1 34/4/1 33/4/1
f 40/4/1 34/4/1 39/4/1
f 41/4/1 34/4/1 40/4/1
f 42/4/1 34/4/1 41/4/1
f 44/4/1 37/4/1 36/4/1
f 45/4/1 37/4/1 44/4/1
f 46/4/1 41/4/1 40/4/1
f 47/4/1 41/4/1 46/4/1
f 54/4/1 50/4/1 49/4/1
f 55/4/1 52/4/1 51/4/1
f 57/4/1 44/4/1 43/4/1
f 58/4/1 48/4/1 47/4/1
f 59/4/1 48/4/1 58/4/1
f 60/2/1 56/2/1 55/2/1
f 60/4/1 55/4/1 51/4/1
f 61/2/1 56/2/1 60/2/1
f 62/2/1 59/2/1 58/2/1
f 63/2/1 59/2/1 62/2/1
f 64/4/1 54/4/1 53/4/1
f 65/4/1 50/4/1 54/4/1
f 65/4/1 54/4/1 64/4/1
f 66/4/1 50/4/1 65/4/1
f 67/4/1 57/4/1 43/4/1
f 68/4/1 63/4/1 62/4/1
f 69/4/1 60/4/1 51/4/1
f 69/4/1 61/4/1 60/4/1
f 70/4/1 61/4/1 69/4/1
f 71/4/1 61/4/1 70/4/1
f 72/4/1 68/4/1 62/4/1
f 72/3/1 69/3/1 68/3/1
f 73/4/1 70/4/1 69/4/1
f 73/3/1 69/3/1 72/3/1
f 74/4/1 66/4/1 65/4/1
f 74/4/1 67/4/1 66/4/1
f 75/4/1 67/4/1 74/4/1
f 76/4/1 70/4/1 73/4/1
f 76/4/1 73/4/1 72/4/1
f 77/4/1 70/4/1 76/4/1
f 78/4/1 67/4/1 75/4/1
f 79/4/1 57/4/1 67/4/1
f 79/4/1 67/4/1 78/4/1
f 82/4/1 76/4/1 72/4/1
f 82/4/1 72/4/1 62/4/1
f 83/4/1 76/4/1 82/4/1
f 85/4/1 81/4/1 80/4/1
f 86/4/1 81/4/1 85/4/1
f 89/4/1 85/4/1 84/4/1
f 89/4/1 87/4/1 86/4/1
f 89/4/1 86/4/1 85/4/1
f 90/4/1 87/4/1 89/4/1
f 92/4/1 89/4/1 88/4/1
f 92/4/1 91/4/1 90/4/1
f 92/4/1 90/4/1 89/4/1
f 93/4/1 91/4/1 92/4/1
f 94/4/1 91/4/1 93/4/1
f 95/4/1 91/4/1 94/4/1
f 96/4/1 94/4/1 93/4/1
f 97/4/1 94/4/1 96/4/1
f 102/4/1 99/4/1 98/4/1
f 103/4/1 99/4/1 102/4/1
f 104/4/1 101/4/1 100/4/1
f 105/4/1 101/4/1 104/4/1
f 108/5/1 107/5/1 106/5/1
f 109/5/1 107/5/1 108/5/1
f 110/4/2 111/4/2 118/4/2
f 118/4/2 111/4/2 119/4/2
f 112/4/2 113/4/2 120/4/2
f 120/4/2 113/4/2 121/4/2
f 114/4/2 115/4/2 122/4/2
f 122/4/2 115/4/2 123/4/2
f 116/4/2 117/4/2 124/4/2
f 124/4/2 117/4/2 125/4/2
f 126/2/2 127/2/2 131/2/2
f 127/4/2 128/4/2 132/4/2
f 131/2/2 127/2/2 132/2/2
f 132/4/2 128/4/2 133/4/2
f 129/3/2 130/3/2 134/3/2
f 134/3/2 130/3/2 135/3/2
f 132/2/2 133/2/2 136/2/2
f 131/4/2 132/4/2 136/4/2
f 136/2/2 133/2/2 137/2/2
f 131/4/2 136/4/2 138/4/2
f 136/4/2 137/4/2 138/4/2
f 138/4/2 137/4/2 139/4/2
f 139/4/2 137/4/2 140/4/2
f 134/4/2 135/4/2 141/4/2
f 141/4/2 135/4/2 142/4/2
f 142/4/2 135/4/2 143/4/2
f 139/4/2 140/4/2 145/4/2
f 141/4/2 142/4/2 145/4/2
f 140/4/2 141/4/2 145/4/2
f 145/4/2 142/4/2 146/4/2
f 144/4/2 145/4/2 150/4/2
f 145/4/2 146/4/2 150/4/2
f 146/4/2 147/4/2 150/4/2
f 150/4/2 147/4/2 151/4/2
f 151/4/2 147/4/2 152/4/2
f 152/4/2 147/4/2 153/4/2
f 148/4/2 149/4/2 157/4/2
f 157/4/2 149/4/2 158/4/2
f 144/4/2 150/4/2 160/4/2
f 153/4/2 147/4/2 161/4/2
f 154/2/2 155/2/2 163/2/2
f 163/2/2 155/2/2 164/2/2
f 158/4/2 159/4/2 166/4/2
f 156/4/2 157/4/2 166/4/2
f 157/4/2 158/4/2 166/4/2
f 166/4/2 159/4/2 167/4/2
f 161/4/2 147/4/2 168/4/2
f 168/4/2 147/4/2 169/4/2
f 164/4/2 165/4/2 170/4/2
f 163/4/2 164/4/2 170/4/2
f 170/4/2 165/4/2 171/4/2
f 144/4/2 160/4/2 172/4/2
f 172/4/2 160/4/2 173/4/2
f 168/3/2 169/3/2 174/3/2
f 161/4/2 168/4/2 174/4/2
f 174/3/2 169/3/2 175/3/2
f 162/2/2 163/2/2 176/2/2
f 163/4/2 170/4/2 177/4/2
f 176/2/2 163/2/2 177/2/2
f 170/2/2 171/2/2 178/2/2
f 177/4/2 170/4/2 178/4/2
f 166/3/2 167/3/2 179/3/2
f 167/4/2 159/4/2 180/4/2
f 179/3/2 167/3/2 180/3/2
f 180/4/2 159/4/2 181/4/2
f 172/3/2 173/3/2 182/3/2
f 173/4/2 160/4/2 183/4/2
f 182/3/2 173/3/2 183/3/2
f 183/4/2 160/4/2 184/4/2
f 161/4/2 174/4/2 185/4/2
f 174/2/2 175/2/2 186/2/2
f 185/4/2 174/4/2 186/4/2
f 186/2/2 175/2/2 187/2/2
f 176/4/2 177/4/2 188/4/2
f 177/2/2 178/2/2 189/2/2
f 188/4/2 177/4/2 189/4/2
f 178/2/2 171/2/2 190/2/2
f 189/2/2 178/2/2 190/2/2
f 190/2/2 171/2/2 191/2/2
f 182/3/2 183/3/2 192/3/2
f 188/2/2 189/2/2 193/2/2
f 186/2/2 187/2/2 193/2/2
f 187/2/2 188/2/2 193/2/2
f 189/3/2 190/3/2 194/3/2
f 193/2/2 189/2/2 194/2/2
f 181/4/2 182/4/2 195/4/2
f 180/4/2 181/4/2 195/4/2
f 195/4/2 182/4/2 196/4/2
f 182/3/2 192/3/2 197/3/2
f 196/4/2 182/4/2 197/4/2
f 197/3/2 192/3/2 198/3/2
f 194/3/2 190/3/2 199/3/2
f 193/4/2 194/4/2 199/4/2
f 199/3/2 190/3/2 200/3/2
f 197/4/2 198/4/2 201/4/2
f 196/4/2 197/4/2 201/4/2
f 201/4/2 198/4/2 202/4/2
f 193/4/2 199/4/2 205/4/2
f 205/4/2 199/4/2 206/4/2
f 203/4/2 204/4/2 207/4/2
f 207/4/2 204/4/2 208/4/2
f 209/4/2 210/4/2 213/4/2
f 213/4/2 210/4/2 214/4/2
f 211/4/2 212/4/2 215/4/2
f 215/4/2 212/4/2 216/4/2
f 217/3/2 218/3/2 221/3/2
f 218/4/2 219/4/2 222/4/2
f 221/3/2 218/3/2 222/3/2
f 219/3/2 220/3/2 223/3/2
f 222/4/2 219/4/2 223/4/2
f 223/3/2 220/3/2 224/3/2
f 221/4/2 222/4/2 225/4/2
f 222/4/2 223/4/2 225/4/2
f 223/4/2 224/4/2 225/4/2
f 225/4/2 224/4/2 226/4/2
f 221/4/2 225/4/2 228/4/2
f 225/2/2 226/2/2 229/2/2
f 228/4/2 225/4/2 229/4/2
f 226/4/2 224/4/2 230/4/2
f 229/2/2 226/2/2 230/2/2
f 230/4/2 224/4/2 231/4/2
f 227/4/2 228/4/2 233/4/2
f 228/2/2 229/2/2 234/2/2
f 233/4/2 228/4/2 234/4/2
f 230/4/2 231/4/2 235/4/2
f 234/2/2 229/2/2 235/2/2
f 231/4/2 232/4/2 235/4/2
f 229/4/2 230/4/2 235/4/2
f 233/3/2 234/3/2 236/3/2
f 234/4/2 235/4/2 237/4/2
f 236/3/2 234/3/2 237/3/2
f 236/4/2 237/4/2 238/4/2
f 235/4/2 232/4/2 239/4/2
f 238/4/2 237/4/2 239/4/2
f 237/4/2 235/4/2 239/4/2
f 240/4/2 241/4/2 244/4/2
f 244/4/2 241/4/2 245/4/2
f 242/4/2 243/4/2 248/4/2
f 248/4/2 243/4/2 249/4/2
f 244/1/2 245/1/2 251/1/2
f 245/7/2 246/7/2 252/7/2
f 251/1/2 245/1/2 252/1/2
f 246/4/2 247/4/2 253/4/2
f 252/7/2 246/7/2 253/7/2
f 247/7/2 248/7/2 254/7/2
f 253/4/2 247/4/2 254/4/2
f 248/1/2 249/1/2 255/1/2
f 254/7/2 248/7/2 255/7/2
f 255/1/2 249/1/2 256/1/2
f 250/4/2 251/4/2 258/4/2
f 251/1/2 252/1/2 259/1/2
f 258/4/2 251/4/2 259/4/2
f 252/1/2 253/1/2 259/1/2
f 253/4/2 254/4/2 260/4/2
f 259/1/2 253/1/2 260/1/2
f 255/1/2 256/1/2 261/1/2
f 260/4/2 254/4/2 261/4/2
f 254/1/2 255/1/2 261/1/2
f 256/4/2 257/4/2 262/4/2
f 261/1/2 256/1/2 262/1/2
f 262/4/2 257/4/2 263/4/2
f 259/3/2 260/3/2 264/3/2
f 261/4/2 262/4/2 265/4/2
f 264/3/2 260/3/2 265/3/2
f 260/4/2 261/4/2 265/4/2
f 265/4/2 262/4/2 266/4/2
f 267/4/2 268/4/2 271/4/2
f 271/4/2 268/4/2 272/4/2
f 269/4/2 270/4/2 273/4/2
f 273/4/2 270/4/2 274/4/2
f 275/4/2 276/4/2 277/4/2
f 277/4/2 276/4/2 278/4/2
f 279/4/2 280/4/2 281/4/2
f 281/4/2 280/4/2 282/4/2
f 282/4/2 280/4/2 283/4/2
f 281/5/2 282/5/2 284/5/2
f 284/5/2 282/5/2 285/5/2
f 289/4/3 287/4/3 286/4/3
f 290/4/3 289/4/3 288/4/3
f 291/4/3 287/4/3 289/4/3
f 291/4/3 289/4/3 290/4/3
f 292/4/3 287/4/3 291/4/3
f 293/4/3 287/4/3 292/4/3
f 294/4/3 292/4/3 291/4/3
f 295/3/3 293/3/3 292/3/3
f 295/4/3 292/4/3 294/4/3
f 296/3/3 293/3/3 295/3/3
f 301/4/3 298/4/3 297/4/3
f 302/4/3 298/4/3 301/4/3
f 305/4/3 300/4/3 299/4/3
f 306/4/3 304/4/3 303/4/3
f 307/4/3 304/4/3 306/4/3
f 308/4/3 300/4/3 305/4/3
f 309/4/3 300/4/3 308/4/3
f 312/4/3 311/4/3 310/4/3
f 313/4/3 311/4/3 312/4/3
f 322/4/3 319/4/3 318/4/3
f 323/4/3 319/4/3 322/4/3
f 324/4/3 315/4/3 314/4/3
f 324/2/3 316/2/3 315/2/3
f 325/4/3 317/4/3 316/4/3
f 325/2/3 316/2/3 324/2/3
f 326/4/3 317/4/3 325/4/3
f 327/4/3 322/4/3 318/4/3
f 328/3/3 323/3/3 322/3/3
f 328/4/3 322/4/3 327/4/3
f 329/3/3 323/3/3 328/3/3
f 330/4/3 324/4/3 314/4/3
f 331/4/3 324/4/3 330/4/3
f 332/4/3 321/4/3 320/4/3
f 333/4/3 321/4/3 332/4/3
f 334/4/3 330/4/3 314/4/3
f 335/4/3 330/4/3 334/4/3
f 340/3/3 337/3/3 336/3/3
f 341/4/3 338/4/3 337/4/3
f 341/3/3 337/3/3 340/3/3
f 342/4/3 338/4/3 341/4/3
f 347/4/3 340/4/3 339/4/3
f 348/4/3 340/4/3 347/4/3
f 353/4/3 344/4/3 343/4/3
f 354/4/3 344/4/3 353/4/3
f 355/4/3 346/4/3 345/4/3
f 356/4/3 346/4/3 355/4/3
f 357/4/3 350/4/3 349/4/3
f 358/3/3 351/3/3 350/3/3
f 358/4/3 350/4/3 357/4/3
f 359/4/3 352/4/3 351/4/3
f 359/3/3 351/3/3 358/3/3
f 360/4/3 352/4/3 359/4/3
f 361/4/3 353/4/3 343/4/3
f 362/1/3 354/1/3 353/1/3
f 362/4/3 353/4/3 361/4/3
f 363/1/3 354/1/3 362/1/3
f 364/3/3 356/3/3 355/3/3
f 365/3/3 356/3/3 364/3/3
f 368/3/3 367/3/3 366/3/3
f 369/3/3 367/3/3 368/3/3
f 375/4/3 371/4/3 370/4/3
f 376/4/3 371/4/3 375/4/3
f 377/3/3 373/3/3 372/3/3
f 378/4/3 374/4/3 373/4/3
f 378/3/3 373/3/3 377/3/3
f 379/4/3 374/4/3 378/4/3
f 380/4/3 371/4/3 376/4/3
f 382/4/3 381/4/3 380/4/3
f 382/4/3 380/4/3 376/4/3
f 383/4/3 381/4/3 382/4/3
f 384/4/3 381/4/3 383/4/3
f 386/4/3 384/4/3 383/4/3
f 387/5/3 385/5/3 384/5/3
f 387/4/3 384/4/3 386/4/3
f 388/5/3 385/5/3 387/5/3
f 391/4/3 390/4/3 389/4/3
f 392/4/3 390/4/3 391/4/3
f 393/4/3 391/4/3 389/4/3
f 393/3/3 392/3/3 391/3/3
f 394/4/3 390/4/3 392/4/3
f 394/3/3 392/3/3 393/3/3
f 395/4/3 390/4/3 394/4/3
f 396/4/3 393/4/3 389/4/3
f 397/4/3 393/4/3 396/4/3
f 398/4/3 396/4/3 389/4/3
f 399/4/3 396/4/3 398/4/3
f 402/4/3 401/4/3 400/4/3
f 403/4/3 401/4/3 402/4/3
f 404/4/3 401/4/3 403/4/3
f 405/4/3 401/4/3 404/4/3
f 406/2/3 404/2/3 403/2/3
f 407/4/3 405/4/3 404/4/3
f 407/2/3 404/2/3 406/2/3
f 408/4/3 405/4/3 407/4/3
f 411/2/3 410/2/3 409/2/3
f 412/2/3 410/2/3 411/2/3
f 413/4/4 414/4/4 415/4/4
f 415/4/4 414/4/4 416/4/4
f 417/4/4 418/4/4 419/4/4
f 419/4/4 418/4/4 420/4/4
f 420/4/4 418/4/4 421/4/4
f 421/4/4 418/4/4 422/4/4
f 423/4/4 424/4/4 426/4/4
f 424/3/4 425/3/4 426/3/4
f 426/3/4 425/3/4 427/3/4
f 426/4/4 427/4/4 428/4/4
f 428/4/4 427/4/4 429/4/4
f 426/4/4 428/4/4 430/4/4
f 428/2/4 429/2/4 431/2/4
f 430/4/4 428/4/4 431/4/4
f 429/4/4 427/4/4 432/4/4
f 431/2/4 429/2/4 432/2/4
f 432/4/4 427/4/4 433/4/4
f 423/4/4 426/4/4 434/4/4
f 426/4/4 430/4/4 434/4/4
f 434/4/4 430/4/4 435/4/4
f 423/4/4 434/4/4 436/4/4
f 436/4/4 434/4/4 437/4/4
f 438/5/4 439/5/4 440/5/4
f 440/5/4 439/5/4 441/5/4
f 442/4/4 443/4/4 444/4/4
f 444/4/4 443/4/4 445/4/4
f 446/4/4 447/4/4 451/4/4
f 451/4/4 447/4/4 452/4/4
f 448/3/4 449/3/4 453/3/4
f 449/4/4 450/4/4 454/4/4
f 453/3/4 449/3/4 454/3/4
f 454/4/4 450/4/4 455/4/4
f 452/4/4 447/4/4 456/4/4
f 456/4/4 457/4/4 458/4/4
f 452/4/4 456/4/4 458/4/4
f 458/4/4 457/4/4 459/4/4
f 459/4/4 457/4/4 460/4/4
f 460/4/4 457/4/4 461/4/4
f 462/2/4 463/2/4 466/2/4
f 466/2/4 463/2/4 467/2/4
f 463/4/4 464/4/4 468/4/4
f 467/2/4 463/2/4 468/2/4
f 468/4/4 464/4/4 469/4/4
f 465/4/4 466/4/4 474/4/4
f 474/4/4 466/4/4 475/4/4
f 470/4/4 471/4/4 479/4/4
f 479/4/4 471/4/4 480/4/4
f 477/4/4 478/4/4 481/4/4
f 476/4/4 477/4/4 481/4/4
f 481/4/4 478/4/4 482/4/4
f 470/4/4 479/4/4 483/4/4
f 479/1/4 480/1/4 484/1/4
f 483/4/4 479/4/4 484/4/4
f 484/1/4 480/1/4 485/1/4
f 472/4/4 473/4/4 486/4/4
f 486/4/4 473/4/4 487/4/4
f 488/4/4 489/4/4 498/4/4
f 489/3/4 490/3/4 498/3/4
f 490/4/4 491/4/4 499/4/4
f 498/3/4 490/3/4 499/3/4
f 492/4/4 493/4/4 500/4/4
f 493/2/4 494/2/4 500/2/4
f 494/4/4 495/4/4 501/4/4
f 500/2/4 494/2/4 501/2/4
f 501/4/4 495/4/4 502/4/4
f 498/4/4 499/4/4 503/4/4
f 499/4/4 491/4/4 504/4/4
f 503/4/4 499/4/4 504/4/4
f 492/4/4 500/4/4 505/4/4
f 500/4/4 501/4/4 505/4/4
f 501/2/4 502/2/4 506/2/4
f 505/4/4 501/4/4 506/4/4
f 506/2/4 502/2/4 507/2/4
f 498/4/4 503/4/4 508/4/4
f 503/3/4 504/3/4 508/3/4
f 504/4/4 491/4/4 509/4/4
f 508/3/4 504/3/4 509/3/4
f 509/4/4 491/4/4 510/4/4
f 492/4/4 505/4/4 511/4/4
f 505/3/4 506/3/4 512/3/4
f 511/4/4 505/4/4 512/4/4
f 506/2/4 507/2/4 513/2/4
f 512/3/4 506/3/4 513/3/4
f 513/2/4 507/2/4 514/2/4
f 498/4/4 508/4/4 515/4/4
f 488/4/4 498/4/4 515/4/4
f 515/4/4 508/4/4 516/4/4
f 496/4/4 497/4/4 517/4/4
f 517/4/4 497/4/4 518/4/4
f 488/4/4 515/4/4 519/4/4
f 519/4/4 515/4/4 520/4/4
f 521/4/4 522/4/4 523/4/4
f 523/4/4 522/4/4 524/4/4
f 524/4/4 522/4/4 525/4/4
f 526/4/4 527/4/4 530/4/4
f 530/4/4 527/4/4 531/4/4
f 528/4/4 529/4/4 534/4/4
f 534/4/4 529/4/4 535/4/4
f 532/2/4 533/2/4 536/2/4
f 536/2/4 533/2/4 537/2/4
f 534/3/4 535/3/4 538/3/4
f 538/3/4 535/3/4 539/3/4
f 540/2/4 541/2/4 544/2/4
f 541/4/4 542/4/4 545/4/4
f 544/2/4 541/2/4 545/2/4
f 545/4/4 542/4/4 546/4/4
f 543/4/4 544/4/4 547/4/4
f 544/2/4 545/2/4 548/2/4
f 547/4/4 544/4/4 548/4/4
f 545/2/4 546/2/4 548/2/4
f 548/2/4 546/2/4 549/2/4
f 546/4/4 542/4/4 550/4/4
f 549/2/4 546/2/4 550/2/4
f 550/4/4 542/4/4 551/4/4
f 548/4/4 549/4/4 552/4/4
f 550/2/4 551/2/4 553/2/4
f 552/4/4 549/4/4 553/4/4
f 549/2/4 550/2/4 553/2/4
f 553/2/4 551/2/4 554/2/4
f 557/4/5 556/4/5 555/4/5
f 558/4/5 556/4/5 557/4/5
f 561/4/5 560/4/5 559/4/5
f 562/4/5 560/4/5 561/4/5
f 565/3/5 564/3/5 563/3/5
f 566/3/5 564/3/5 565/3/5
f 569/4/5 566/4/5 565/4/5
f 569/4/5 568/4/5 567/4/5
f 569/4/5 567/4/5 566/4/5
f 570/4/5 568/4/5 569/4/5
f 571/4/5 569/4/5 565/4/5
f 572/4/5 569/4/5 571/4/5
f 576/4/5 574/4/5 573/4/5
f 577/4/5 574/4/5 576/4/5
f 578/3/5 576/3/5 575/3/5
f 579/3/5 576/3/5 578/3/5
f 582/2/5 581/2/5 580/2/5
f 583/2/5 581/2/5 582/2/5
f 585/4/5 584/4/5 583/4/5
f 586/4/5 584/4/5 585/4/5
f 590/4/5 588/4/5 587/4/5
f 591/4/5 588/4/5 590/4/5
f 593/4/5 590/4/5 589/4/5
f 593/4/5 592/4/5 591/4/5
f 593/4/5 591/4/5 590/4/5
f 594/4/5 592/4/5 593/4/5
f 595/4/5 593/4/5 589/4/5
f 596/4/5 593/4/5 595/4/5
f 599/3/5 598/3/5 597/3/5
f 600/3/5 598/3/5 599/3/5
f 601/4/5 600/4/5 599/4/5
f 602/4/5 600/4/5 601/4/5
f 603/3/5 602/3/5 601/3/5
f 604/3/5 602/3/5 603/3/5
f 607/4/5 606/4/5 605/4/5
f 608/4/5 606/4/5 607/4/5
f 610/4/5 607/4/5 605/4/5
f 611/2/5 609/2/5 608/2/5
f 611/4/5 607/4/5 610/4/5
f 611/2/5 608/2/5 607/2/5
f 612/2/5 609/2/5 611/2/5
f 613/2/5 609/2/5 612/2/5
f 614/4/5 612/4/5 611/4/5
f 615/4/5 612/4/5 614/4/5
f 620/4/5 617/4/5 616/4/5
f 621/4/5 617/4/5 620/4/5
f 622/4/5 619/4/5 618/4/5
f 623/4/5 619/4/5 622/4/5
f 626/4/5 625/4/5 624/4/5
f 627/4/5 625/4/5 626/4/5
f 630/2/5 629/2/5 628/2/5
f 631/2/5 629/2/5 630/2/5
f 636/2/5 633/2/5 632/2/5
f 637/2/5 633/2/5 636/2/5
f 638/4/5 635/4/5 634/4/5
f 639/4/5 635/4/5 638/4/5
f 642/4/5 641/4/5 640/4/5
f 643/4/5 641/4/5 642/4/5
f 644/4/5 641/4/5 643/4/5
f 647/4/5 646/4/5 645/4/5
f 648/4/5 646/4/5 647/4/5
f 651/4/5 650/4/5 649/4/5
f 652/4/5 650/4/5 651/4/5
f 657/3/5 654/3/5 653/3/5
f 657/3/5 655/3/5 654/3/5
f 658/2/5 656/2/5 655/2/5
f 658/3/5 655/3/5 657/3/5
f 659/2/5 656/2/5 658/2/5
f 662/4/5 661/4/5 660/4/5
f 663/4/5 661/4/5 662/4/5
f 666/4/5 665/4/5 664/4/5
f 667/4/5 665/4/5 666/4/5
f 672/4/5 669/4/5 668/4/5
f 673/4/5 669/4/5 672/4/5
f 674/4/5 671/4/5 670/4/5
f 675/4/5 671/4/5 674/4/5
f 678/4/5 677/4/5 676/4/5
f 679/4/5 677/4/5 678/4/5
f 680/4/5 677/4/5 679/4/5
f 684/4/5 682/4/5 681/4/5
f 684/4/5 683/4/5 682/4/5
f 685/4/5 683/4/5 684/4/5
f 686/4/6 687/4/6 688/4/6
f 688/4/6 687/4/6 689/4/6
f 690/4/6 691/4/6 692/4/6
f 692/4/6 691/4/6 693/4/6
f 694/4/6 695/4/6 696/4/6
f 696/4/6 695/4/6 697/4/6
f 697/4/6 695/4/6 698/4/6
f 699/4/6 700/4/6 701/4/6
f 701/4/6 700/4/6 702/4/6
f 703/4/6 704/4/6 705/4/6
f 705/4/6 704/4/6 706/4/6
f 707/4/6 708/4/6 709/4/6
f 709/4/6 708/4/6 710/4/6
f 711/4/6 712/4/6 714/4/6
f 712/3/6 713/3/6 715/3/6
f 714/4/6 712/4/6 715/4/6
f 715/3/6 713/3/6 716/3/6
f 717/4/6 718/4/6 720/4/6
f 718/2/6 719/2/6 721/2/6
f 720/4/6 718/4/6 721/4/6
f 721/2/6 719/2/6 722/2/6
f 723/4/6 724/4/6 725/4/6
f 725/4/6 724/4/6 726/4/6
f 727/4/6 728/4/6 730/4/6
f 728/3/6 729/3/6 731/3/6
f 730/4/6 728/4/6 731/4/6
f 731/3/6 729/3/6 732/3/6
f 733/4/6 734/4/6 736/4/6
f 736/4/6 734/4/6 737/4/6
f 735/4/6 736/4/6 739/4/6
f 737/4/6 738/4/6 739/4/6
f 736/4/6 737/4/6 739/4/6
f 739/4/6 738/4/6 740/4/6
f 735/4/6 739/4/6 741/4/6
f 740/4/6 738/4/6 742/4/6
f 735/4/6 741/4/6 743/4/6
f 741/4/6 742/4/6 743/4/6
f 743/4/6 742/4/6 744/4/6
f 742/4/6 738/4/6 745/4/6
f 744/4/6 742/4/6 745/4/6
f 745/4/6 738/4/6 746/4/6
f 744/4/6 745/4/6 747/4/6
f 747/4/6 745/4/6 748/4/6
f 749/4/6 750/4/6 751/4/6
f 751/4/6 750/4/6 752/4/6
f 751/4/6 752/4/6 754/4/6
f 752/4/6 753/4/6 754/4/6
f 754/4/6 753/4/6 755/4/6
f 755/4/6 753/4/6 756/4/6
f 757/5/6 758/5/6 759/5/6
f 759/5/6 758/5/6 760/5/6
f 761/4/6 762/4/6 763/4/6
f 763/4/6 762/4/6 764/4/6
f 764/4/6 762/4/6 765/4/6
f 766/4/6 767/4/6 768/4/6
f 768/4/6 767/4/6 769/4/6
f 770/4/6 771/4/6 773/4/6
f 771/3/6 772/3/6 773/3/6
f 773/3/6 772/3/6 774/3/6
f 770/4/6 773/4/6 775/4/6
f 773/4/6 774/4/6 775/4/6
f 775/4/6 774/4/6 776/4/6
